{
  "EDITOR_STATE": {
    "allProjectFiles": {
      "1962697a-3c06-42b6-885f-e51a174005e5": {
        "id": "1962697a-3c06-42b6-885f-e51a174005e5",
        "parent": null,
        "name": "kk.js",
        "type": "JS_LAMBDA",
        "isDirectory": false,
        "children": [],
        "isRemovable": true,
        "filePath": "kk.js",
        "cursor": {
          "lineNumber": 2,
          "column": 5
        },
        "config": {
          "runtime": "nodejs10.x",
          "handler": "handler",
          "timeout": 60,
          "memory": 128,
          "layers": [],
          "name": "kk"
        },
        "triggers": [
          {
            "resourceName": "apigTestAPInewchangeany",
            "config": {}
          }
        ],
        "lastUpdated": 1603374547094
      }
    },
    "openFiles": [
      "1962697a-3c06-42b6-885f-e51a174005e5"
    ],
    "currentFileId": "1962697a-3c06-42b6-885f-e51a174005e5",
    "resources": {
      "apigTestAPInewchangeany": {
        "name": "apigTestAPInewchangeany",
        "type": "API_GATEWAY",
        "config": {
          "apiType": 1,
          "apiMode": 1,
          "apiName": "TestAPI",
          "apiId": "0itznun7w3",
          "endpointType": "EDGE",
          "rootResourceId": "h2lelj6j7k",
          "existingResources": {
            "/MyLambda": "98nqbj",
            "/": "h2lelj6j7k",
            "/newchange/test": "k6pdhn",
            "/newchange": "q1ox7l",
            "/testWithSlash": "q4m4g1",
            "/testtwospeciallambda": "q4szm3",
            "/testtwospecialkumutest": "wey3lk"
          },
          "resourceMode": 1,
          "resourcePath": "/newchange",
          "resourceName": "newchange",
          "resourceId": "q1ox7l",
          "restMethod": "ANY",
          "proxyIntegration": false,
          "enableCORS": false,
          "stageMode": 1,
          "stageName": "test12",
          "stageDeploymentId": "ewo1xf",
          "mode": 1
        }
      }
    },
    "customTemplate": {
      "syntax": "JSON",
      "overrideDefault": false,
      "dialect": null,
      "definitions": null
    },
    "envVariables": [
      {
        "lambdaId": "all",
        "varKey": "SIGMA_AWS_ACC_ID",
        "varValue": null,
        "shouldPersist": false,
        "displayOnly": false,
        "editable": false
      }
    ],
    "packageJSON": {
      "dependencies": {}
    }
  },
  "PROJECT_META": {
    "sigmaVersion": "1.4.4.1",
    "projectName": "kk",
    "projectDescription": "",
    "projectVersion": "1.0.0",
    "projectRegion": "us-east-1",
    "platform": "AWS",
    "language": "nodejs",
    "platformRegions": {},
    "lastSave": 1603374582412
  },
  "VCS_STATE": {
    "provider": "GitLab",
    "repo": {
      "name": "kk",
      "url": "https://gitlab.com/kumudika/kk"
    }
  }
}